^C:\USERS\PAULO\DESKTOP\COVARIANCE\COVARIANCE\SOURCE.CPP
C:\USERS\PAULO\DESKTOP\COVARIANCE\COVARIANCE\DEBUG\VC141.PDB
C:\USERS\PAULO\DESKTOP\COVARIANCE\COVARIANCE\DEBUG\VC141.IDB
C:\USERS\PAULO\DESKTOP\COVARIANCE\COVARIANCE\DEBUG\SOURCE.OBJ
